﻿{
  "user": 
   {
    "id": 0,
    "username": "kyloren",
    "name": "Kylo Ren",
    "token": "0ASDLK121283AK11",
    "profile_image": "https://images.indianexpress.com/2017/10/adam-driver-759.jpg"
  },
  "own": [
    {
      "id": 0, 
      "title": "Kate & Kyle",
      "banner_photo": "http://cdn.shopify.com/s/files/1/2157/4871/products/product-image-349226893_1024x1024.jpg?v=1500698154",
      "groom_photo": "http://choppatux.com/images/content/tux/tux1.jpg",
      "bride_photo": "https://avatars.mds.yandex.net/get-pdb/34158/5f7ef651-8b61-4405-907c-fe863aca167e/orig",
      "description": "blah blah",
      "attendees_count": 2,
      "start_date_at": "December 25, 2018",
      "start_time_at": "6:00",
      "rsvp": 0,
      "location": "Banawa Heights",
      "officiator": "Pastor Jay",
      "reception_location": "Ayala Heights",     
      "attendees": [
        {
          "id": 0,
          "name": "Rey",
          "role": "Bride",
          "attendance_plan": 1,
          "profile_image": "https://hdqwalls.com/wallpapers/rey-in-star-wars-the-last-jedi-2017-u0.jpg"
        },
        {
          "id": 1,
          "name": "Finn",
          "role": "Groom",
          "attendance_plan": 0,
          "profile_image": "https://static1.squarespace.com/static/51b3dc8ee4b051b96ceb10de/t/5938c5ab725e256312c254c9/1496892871227/?format=2500w"
        }
      ],
      "comments": [
        {
          "id": 0,
          "name": "Kylo",
          "comment": "Congrats",
          "image_comment": "http://www.pawculture.com/uploads/versions/cutestmain---x----670-440x---.jpg",
          "profile_image": "https://images.indianexpress.com/2017/10/adam-driver-759.jpg"
        },
        {
          "id": 1,
          "name": "Jyn",
          "comment": "Idol",
          "image_comment": "",
          "profile_image": "https://1.bp.blogspot.com/-M0Y96-3tc6w/WGQSroYGr9I/AAAAAAAB1Rw0/uGfn-vfPZUkHbWDj5y3Xjbi99qfRF1vUwCLcB/s1600/felicity_jones_rogue_one-t1%255B1%255D.jpg"
        }
      ]
    },
    {
      "id": 1,
      "title": "Karen & Kevin",
      "banner_photo": "http://cdn.shopify.com/s/files/1/2157/4871/products/product-image-349226893_1024x1024.jpg?v=1500698154",
      "groom_photo": "http://choppatux.com/images/content/tux/tux1.jpg",
      "bride_photo": "https://avatars.mds.yandex.net/get-pdb/34158/5f7ef651-8b61-4405-907c-fe863aca167e/orig",
      "description": "Hehehe",
      "attendees_count": 2,
      "start_date_at": "Jan 13, 2019",
      "start_time_at": "6:00",
      "rsvp": 1,
      "location": "Banawa Heights",
      "officiator": "Pastor Jay",
      "reception_location": "Ayala Heights",
      "attendees": [
        {
          "id": 0,
          "name": "Karen",
          "role": "Bride",
          "attendance_plan": 0
        },
        {
          "id": 1,
          "name": "Kevin",
          "role": "Groom",
          "attendance_plan": 0
        }
      ],
      "comments": [
        {
          "id": 0,
          "name": "John",
          "comment": "Congrats",
          "image_comment": ""
        },
        {
          "id": 1,
          "name": "Jen",
          "comment": "Idol",
          "image_comment": ""
        }
      ]
    },
    {
      "id": 2,
      "title": "David & Goliath",
      "banner_photo": "http://cdn.shopify.com/s/files/1/2157/4871/products/product-image-349226893_1024x1024.jpg?v=1500698154",
      "groom_photo": "http://choppatux.com/images/content/tux/tux1.jpg",
      "bride_photo": "https://avatars.mds.yandex.net/get-pdb/34158/5f7ef651-8b61-4405-907c-fe863aca167e/orig",
      "description": "Hehehe",
      "attendees_count": 2,
      "start_date_at": "July 08, 2019",
      "start_time_at": "6:00",
      "rsvp": 2,
      "location": "Banawa Heights",
      "officiator": "Pastor Jay",
      "reception_location": "Ayala Heights",
      "attendees": [
        {
          "id": 0,
          "name": "David",
          "role": "Bride",
          "attendance_plan": 0
        },
        {
          "id": 1,
          "name": "Goliath",
          "role": "Groom",
          "attendance_plan": 0
        }
      ],
      "comments": [
        {
          "id": 0,
          "name": "John",
          "comment": "Congrats",
          "image_comment": ""
        },
        {
          "id": 1,
          "name": "Jen",
          "comment": "Idol",
          "image_comment": ""
        }
      ]
    }
  ],
  "invited": [
    {
      "id": 0,
      "title": "Jan x Jen",
      "banner_photo": "https://image.shutterstock.com/image-photo/wedding-rings-on-card-white-260nw-533662483.jpg",
      "groom_photo": "http://choppatux.com/images/content/tux/tux1.jpg",
      "bride_photo": "https://avatars.mds.yandex.net/get-pdb/34158/5f7ef651-8b61-4405-907c-fe863aca167e/orig",
      "description": "Exciting wedding",
      "attendees_count": 2,
      "start_date_at": "January 30, 2019",
      "start_time_at": "12:00",
      "rsvp": 0,
      "location": "Banawa Heights",
      "officiator": "Pastor Jay",
      "reception_location": "Ayala Heights",
      "attendees": [
        {
          "id": 0,
          "name": "Jen",
          "role": "Bride",
          "attendance_plan": 1
        },
        {
          "id": 1,
          "name": "Jan",
          "role": "Groom",
          "attendance_plan": 0
        }
      ],
      "comments": [
        {
          "id": 0,
          "name": "John",
          "comment": "Congrats",
          "image_comment": ""
        },
        {
          "id": 1,
          "name": "Jen",
          "comment": "Idol",
          "image_comment": ""
        }
      ]
    },
    {
      "id": 1,
      "title": "Victor x Magtanggol",
      "banner_photo": "https://image.shutterstock.com/image-photo/wedding-rings-on-card-white-260nw-533662483.jpg",
      "groom_photo": "http://choppatux.com/images/content/tux/tux1.jpg",
      "bride_photo": "https://avatars.mds.yandex.net/get-pdb/34158/5f7ef651-8b61-4405-907c-fe863aca167e/orig",
      "description": "Woohoo",
      "attendees_count": 2,
      "start_date_at": "October 30, 2020",
      "start_time_at": "04:00",
      "rsvp": 1,
      "location": "Banawa Heights",
      "officiator": "Pastor Jay",
      "reception_location": "Ayala Heights",
      "attendees": [
        {
          "id": 0,
          "name": "Magtanggol",
          "role": "Bride",
          "attendance_plan": 0
        },
        {
          "id": 1,
          "name": "Victor",
          "role": "Groom",
          "attendance_plan": 0
        }
      ],
      "comments": [
        {
          "id": 0,
          "name": "John",
          "comment": "Congrats",
          "image_comment": ""
        },
        {
          "id": 1,
          "name": "Jen",
          "comment": "Idol",
          "image_comment": ""
        }
      ]
    },
    {
      "id": 2,
      "title": "Jack x Jill",
      "banner_photo": "https://image.shutterstock.com/image-photo/wedding-rings-on-card-white-260nw-533662483.jpg",
      "groom_photo": "http://choppatux.com/images/content/tux/tux1.jpg",
      "bride_photo": "https://avatars.mds.yandex.net/get-pdb/34158/5f7ef651-8b61-4405-907c-fe863aca167e/orig",
      "description": "Waheheheh",
      "attendees_count": 2,
      "start_date_at": "July 25, 2021",
      "start_time_at": "01:00",
      "rsvp": 2,
      "location": "Banawa Heights",
      "officiator": "Pastor Jay",
      "reception_location": "Ayala Heights",
      "attendees": [
        {
          "id": 0,
          "name": "Jill",
          "role": "Bride",
          "attendance_plan": 0
        },
        {
          "id": 1,
          "name": "Jack",
          "role": "Groom",
          "attendance_plan": 0
        }
      ],
      "comments": [
        {
          "id": 0,
          "name": "John",
          "comment": "Congrats",
          "image_comment": ""
        },
        {
          "id": 1,
          "name": "Jen",
          "comment": "Idol",
          "image_comment": ""
        }
      ]
    }
  ]
}
